\relax 
\providecommand\hyper@newdestlabel[2]{}
\providecommand\HyperFirstAtBeginDocument{\AtBeginDocument}
\HyperFirstAtBeginDocument{\ifx\hyper@anchor\@undefined
\global\let\oldcontentsline\contentsline
\gdef\contentsline#1#2#3#4{\oldcontentsline{#1}{#2}{#3}}
\global\let\oldnewlabel\newlabel
\gdef\newlabel#1#2{\newlabelxx{#1}#2}
\gdef\newlabelxx#1#2#3#4#5#6{\oldnewlabel{#1}{{#2}{#3}}}
\AtEndDocument{\ifx\hyper@anchor\@undefined
\let\contentsline\oldcontentsline
\let\newlabel\oldnewlabel
\fi}
\fi}
\global\let\hyper@last\relax 
\gdef\HyperFirstAtBeginDocument#1{#1}
\providecommand\HyField@AuxAddToFields[1]{}
\providecommand\HyField@AuxAddToCoFields[2]{}
\providecommand \oddpage@label [2]{}
\@writefile{toc}{\beamer@endinputifotherversion {3.36pt}}
\@writefile{nav}{\beamer@endinputifotherversion {3.36pt}}
\@writefile{nav}{\headcommand {\slideentry {0}{0}{1}{1/1}{}{0}}}
\@writefile{nav}{\headcommand {\beamer@framepages {1}{1}}}
\@writefile{toc}{\beamer@sectionintoc {1}{Introduction}{2}{0}{1}}
\@writefile{nav}{\headcommand {\sectionentry {1}{Introduction}{2}{Introduction}{0}}}
\@writefile{nav}{\headcommand {\beamer@sectionpages {1}{1}}}
\@writefile{nav}{\headcommand {\beamer@subsectionpages {1}{1}}}
\@writefile{toc}{\beamer@subsectionintoc {1}{1}{Brief description}{2}{0}{1}}
\@writefile{nav}{\headcommand {\beamer@subsectionentry {0}{1}{1}{2}{Brief description}}\headcommand {\beamer@subsectionpages {2}{1}}}
\@writefile{nav}{\headcommand {\slideentry {1}{1}{1}{2/2}{Brief description}{0}}}
\@writefile{nav}{\headcommand {\beamer@framepages {2}{2}}}
\@writefile{toc}{\beamer@sectionintoc {2}{Overview}{3}{0}{2}}
\@writefile{nav}{\headcommand {\sectionentry {2}{Overview}{3}{Overview}{0}}}
\@writefile{nav}{\headcommand {\beamer@sectionpages {2}{2}}}
\@writefile{nav}{\headcommand {\beamer@subsectionpages {2}{2}}}
\@writefile{nav}{\headcommand {\slideentry {2}{0}{1}{3/3}{}{0}}}
\@writefile{nav}{\headcommand {\beamer@framepages {3}{3}}}
\@writefile{toc}{\beamer@sectionintoc {3}{Front-end}{4}{0}{3}}
\@writefile{nav}{\headcommand {\sectionentry {3}{Front-end}{4}{Front-end}{0}}}
\@writefile{nav}{\headcommand {\beamer@sectionpages {3}{3}}}
\@writefile{nav}{\headcommand {\beamer@subsectionpages {3}{3}}}
\@writefile{nav}{\headcommand {\slideentry {3}{0}{1}{4/4}{}{0}}}
\@writefile{nav}{\headcommand {\beamer@framepages {4}{4}}}
\@writefile{toc}{\beamer@subsectionintoc {3}{1}{Specify query}{5}{0}{3}}
\@writefile{nav}{\headcommand {\beamer@subsectionentry {0}{3}{1}{5}{Specify query}}\headcommand {\beamer@subsectionpages {4}{4}}}
\@writefile{nav}{\headcommand {\slideentry {3}{1}{1}{5/5}{Specify query}{0}}}
\@writefile{nav}{\headcommand {\beamer@framepages {5}{5}}}
\@writefile{toc}{\beamer@subsectionintoc {3}{2}{View results}{6}{0}{3}}
\@writefile{nav}{\headcommand {\beamer@subsectionentry {0}{3}{2}{6}{View results}}\headcommand {\beamer@subsectionpages {5}{5}}}
\@writefile{nav}{\headcommand {\slideentry {3}{2}{1}{6/6}{View results}{0}}}
\@writefile{nav}{\headcommand {\beamer@framepages {6}{6}}}
\@writefile{toc}{\beamer@sectionintoc {4}{Back-end}{7}{0}{4}}
\@writefile{nav}{\headcommand {\sectionentry {4}{Back-end}{7}{Back-end}{0}}}
\@writefile{nav}{\headcommand {\beamer@sectionpages {4}{6}}}
\@writefile{nav}{\headcommand {\beamer@subsectionpages {6}{6}}}
\@writefile{toc}{\beamer@subsectionintoc {4}{1}{Connector}{7}{0}{4}}
\@writefile{nav}{\headcommand {\beamer@subsectionentry {0}{4}{1}{7}{Connector}}\headcommand {\beamer@subsectionpages {7}{6}}}
\@writefile{nav}{\headcommand {\slideentry {4}{1}{1}{7/7}{Connector}{0}}}
\@writefile{nav}{\headcommand {\beamer@framepages {7}{7}}}
\@writefile{nav}{\headcommand {\slideentry {4}{1}{2}{8/9}{Connector}{0}}}
\@writefile{nav}{\headcommand {\beamer@framepages {8}{9}}}
\@writefile{toc}{\beamer@subsectionintoc {4}{2}{Profiler}{10}{0}{4}}
\@writefile{nav}{\headcommand {\beamer@subsectionentry {0}{4}{2}{10}{Profiler}}\headcommand {\beamer@subsectionpages {7}{9}}}
\@writefile{nav}{\headcommand {\slideentry {4}{2}{1}{10/10}{Profiler}{0}}}
\@writefile{nav}{\headcommand {\beamer@framepages {10}{10}}}
\@writefile{toc}{\beamer@subsubsectionintoc {4}{2}{1}{PGM's used}{11}{0}{4}}
\@writefile{nav}{\headcommand {\beamer@subsubsectionentry {0}{4}{2}{1}{11}{PGM's used}}}
\@writefile{nav}{\headcommand {\slideentry {4}{2}{2}{11/11}{Profiler}{0}}}
\@writefile{nav}{\headcommand {\beamer@framepages {11}{11}}}
\@writefile{nav}{\headcommand {\slideentry {4}{2}{3}{12/12}{Profiler}{0}}}
\@writefile{nav}{\headcommand {\beamer@framepages {12}{12}}}
\@writefile{toc}{\beamer@sectionintoc {5}{Results}{13}{0}{5}}
\@writefile{nav}{\headcommand {\sectionentry {5}{Results}{13}{Results}{0}}}
\@writefile{nav}{\headcommand {\beamer@sectionpages {7}{12}}}
\@writefile{nav}{\headcommand {\beamer@subsectionpages {10}{12}}}
\@writefile{toc}{\beamer@subsectionintoc {5}{1}{Performance and colour model}{13}{0}{5}}
\@writefile{nav}{\headcommand {\beamer@subsectionentry {0}{5}{1}{13}{Performance and colour model}}\headcommand {\beamer@subsectionpages {13}{12}}}
\@writefile{nav}{\headcommand {\slideentry {5}{1}{1}{13/13}{Performance and colour model}{0}}}
\@writefile{nav}{\headcommand {\beamer@framepages {13}{13}}}
\@writefile{toc}{\beamer@subsectionintoc {5}{2}{Scoring results}{14}{0}{5}}
\@writefile{nav}{\headcommand {\beamer@subsectionentry {0}{5}{2}{14}{Scoring results}}\headcommand {\beamer@subsectionpages {13}{13}}}
\@writefile{nav}{\headcommand {\slideentry {5}{2}{1}{14/14}{Scoring results}{0}}}
\@writefile{nav}{\headcommand {\beamer@framepages {14}{14}}}
\@writefile{toc}{\beamer@subsectionintoc {5}{3}{Conclusion}{15}{0}{5}}
\@writefile{nav}{\headcommand {\beamer@subsectionentry {0}{5}{3}{15}{Conclusion}}\headcommand {\beamer@subsectionpages {14}{14}}}
\@writefile{nav}{\headcommand {\slideentry {5}{3}{1}{15/15}{Conclusion}{0}}}
\@writefile{nav}{\headcommand {\beamer@framepages {15}{15}}}
\@writefile{nav}{\headcommand {\beamer@partpages {1}{15}}}
\@writefile{nav}{\headcommand {\beamer@subsectionpages {15}{15}}}
\@writefile{nav}{\headcommand {\beamer@sectionpages {13}{15}}}
\@writefile{nav}{\headcommand {\beamer@documentpages {15}}}
\@writefile{nav}{\headcommand {\def \inserttotalframenumber {14}}}
