\relax 
\providecommand\zref@newlabel[2]{}
\providecommand\hyper@newdestlabel[2]{}
\providecommand\HyperFirstAtBeginDocument{\AtBeginDocument}
\HyperFirstAtBeginDocument{\ifx\hyper@anchor\@undefined
\global\let\oldcontentsline\contentsline
\gdef\contentsline#1#2#3#4{\oldcontentsline{#1}{#2}{#3}}
\global\let\oldnewlabel\newlabel
\gdef\newlabel#1#2{\newlabelxx{#1}#2}
\gdef\newlabelxx#1#2#3#4#5#6{\oldnewlabel{#1}{{#2}{#3}}}
\AtEndDocument{\ifx\hyper@anchor\@undefined
\let\contentsline\oldcontentsline
\let\newlabel\oldnewlabel
\fi}
\fi}
\global\let\hyper@last\relax 
\gdef\HyperFirstAtBeginDocument#1{#1}
\providecommand\HyField@AuxAddToFields[1]{}
\providecommand\HyField@AuxAddToCoFields[2]{}
\bibstyle{plain}
\providecommand\@newglossary[4]{}
\@newglossary{main}{glg}{gls}{glo}
\@newglossary{acronym}{alg}{acr}{acn}
\providecommand\@glsorder[1]{}
\providecommand\@istfilename[1]{}
\@istfilename{main.ist}
\@glsorder{word}
\citation{CHAP}
\citation{CHAP}
\citation{BOOK}
\@writefile{toc}{\contentsline {section}{Acronyms}{3}{section*.1}}
\@writefile{toc}{\contentsline {section}{\numberline {1}Introduction}{3}{section.1}}
\@writefile{toc}{\contentsline {subsection}{\numberline {1.1}Outline}{3}{subsection.1.1}}
\citation{CHAP}
\@writefile{toc}{\contentsline {subsection}{\numberline {1.2}Approach}{4}{subsection.1.2}}
\@writefile{toc}{\contentsline {subsection}{\numberline {1.3}Scope}{4}{subsection.1.3}}
\@writefile{toc}{\contentsline {subsection}{\numberline {1.4}Structure}{4}{subsection.1.4}}
\@writefile{toc}{\contentsline {section}{\numberline {2}Requirements}{5}{section.2}}
\@writefile{toc}{\contentsline {subsection}{\numberline {2.1}System outline}{5}{subsection.2.1}}
\@writefile{lof}{\contentsline {figure}{\numberline {1}{\ignorespaces Basic overview of the system, separated into two components (front-end and back-end).\relax }}{5}{figure.1}}
\newlabel{fig:sys_overview}{{1}{5}{Basic overview of the system, separated into two components (front-end and back-end).\relax }{figure.1}{}}
\@writefile{toc}{\contentsline {subsection}{\numberline {2.2}Front-end}{5}{subsection.2.2}}
\@writefile{toc}{\contentsline {subsubsection}{\numberline {2.2.1}Functional requirements}{5}{subsubsection.2.2.1}}
\@writefile{toc}{\contentsline {subsubsection}{\numberline {2.2.2}Functional requirements not implemented}{5}{subsubsection.2.2.2}}
\citation{ABMM}
\citation{HOG}
\citation{BAC}
\@writefile{toc}{\contentsline {subsubsection}{\numberline {2.2.3}Additional functionality implemented}{6}{subsubsection.2.2.3}}
\@writefile{toc}{\contentsline {subsection}{\numberline {2.3}Back-end}{6}{subsection.2.3}}
\@writefile{toc}{\contentsline {subsubsection}{\numberline {2.3.1}Person detection and body segmentation}{6}{subsubsection.2.3.1}}
\@writefile{toc}{\contentsline {subsubsection}{\numberline {2.3.2}Scoring of image frames}{6}{subsubsection.2.3.2}}
\@writefile{toc}{\contentsline {subsubsection}{\numberline {2.3.3}Connection to the \acrshort {csl} \acrshort {DVR}}{6}{subsubsection.2.3.3}}
\@writefile{toc}{\contentsline {subsubsection}{\numberline {2.3.4}Training of parameters}{6}{subsubsection.2.3.4}}
\@writefile{toc}{\contentsline {subsubsection}{\numberline {2.3.5}Database interaction}{7}{subsubsection.2.3.5}}
\@writefile{toc}{\contentsline {subsubsubsection}{\numberline {2.3.5.1}Retrieval}{7}{subsubsubsection.2.3.5.1}}
\@writefile{toc}{\contentsline {subsubsubsection}{\numberline {2.3.5.2}Storage}{7}{subsubsubsection.2.3.5.2}}
\@writefile{toc}{\contentsline {subsection}{\numberline {2.4}Performance requirements}{7}{subsection.2.4}}
\@writefile{toc}{\contentsline {section}{\numberline {3}Design}{7}{section.3}}
\@writefile{toc}{\contentsline {subsection}{\numberline {3.1}System overview}{7}{subsection.3.1}}
\@writefile{lof}{\contentsline {figure}{\numberline {2}{\ignorespaces Overview of the system.\relax }}{8}{figure.2}}
\newlabel{fig:sys_overview}{{2}{8}{Overview of the system.\relax }{figure.2}{}}
\gdef \LT@i {\LT@entry 
    {1}{98.98462pt}\LT@entry 
    {1}{178.25981pt}}
\@writefile{toc}{\contentsline {subsubsection}{\numberline {3.1.1}Structure of the query: input profile}{9}{subsubsection.3.1.1}}
\newlabel{input_profile}{{1}{9}{Structure of the query: input profile}{table.1}{}}
\@writefile{lot}{\contentsline {table}{\numberline {1}{\ignorespaces Depicts the structure of the input profile. The assignments to the date and time and camera subset attributes result in an initial set of image frames. Matches in this set are found using the assigments for attributes \texttt  {hair\_colour}, \texttt  {torso\_colour} and \texttt  {legs\_colour}.}}{9}{table.1}}
\@writefile{toc}{\contentsline {subsection}{\numberline {3.2}Front-end}{9}{subsection.3.2}}
\@writefile{toc}{\contentsline {subsection}{\numberline {3.3}Views}{9}{subsection.3.3}}
\providecommand*\caption@xref[2]{\@setref\relax\@undefined{#1}}
\newlabel{fig:admin_li}{{3a}{10}{View facilitating the login of the superuser.\relax }{figure.caption.2}{}}
\newlabel{sub@fig:admin_li}{{a}{10}{View facilitating the login of the superuser.\relax }{figure.caption.2}{}}
\newlabel{fig:admin_add}{{3b}{10}{View showing currently active video operators.\relax }{figure.caption.2}{}}
\newlabel{sub@fig:admin_add}{{b}{10}{View showing currently active video operators.\relax }{figure.caption.2}{}}
\@writefile{lof}{\contentsline {figure}{\numberline {3}{\ignorespaces Views showing the functionality of the administration component within the front-end.\relax }}{10}{figure.caption.2}}
\newlabel{fig:image2}{{3}{10}{Views showing the functionality of the administration component within the front-end.\relax }{figure.caption.2}{}}
\@writefile{lof}{\contentsline {figure}{\numberline {4}{\ignorespaces View for where the video operator can login and begin performing video based searches.\relax }}{10}{figure.4}}
\newlabel{fig:login_VO}{{4}{10}{View for where the video operator can login and begin performing video based searches.\relax }{figure.4}{}}
\newlabel{fig:input_profile_view}{{5a}{11}{View facilitating the configuration of the input profile \ref {input_profile}.\relax }{figure.caption.3}{}}
\newlabel{sub@fig:input_profile_view}{{a}{11}{View facilitating the configuration of the input profile \ref {input_profile}.\relax }{figure.caption.3}{}}
\newlabel{fig:region_selector}{{5b}{11}{Modal allowing the video operator to select a region within a camera view for a search.\relax }{figure.caption.3}{}}
\newlabel{sub@fig:region_selector}{{b}{11}{Modal allowing the video operator to select a region within a camera view for a search.\relax }{figure.caption.3}{}}
\@writefile{lof}{\contentsline {figure}{\numberline {5}{\ignorespaces View and modal showing the interactions allowing the configuration of the colour assignments and camera search region's.\relax }}{11}{figure.caption.3}}
\newlabel{fig:image2}{{5}{11}{View and modal showing the interactions allowing the configuration of the colour assignments and camera search region's.\relax }{figure.caption.3}{}}
\@writefile{lof}{\contentsline {figure}{\numberline {6}{\ignorespaces Modal allowing the configuration of the date and time range.\relax }}{11}{figure.6}}
\newlabel{fig:modal_date_time}{{6}{11}{Modal allowing the configuration of the date and time range.\relax }{figure.6}{}}
\@writefile{lof}{\contentsline {figure}{\numberline {7}{\ignorespaces Results from a search, shown on the right of the screenshot. On the left column a summary of the query is given.\relax }}{12}{figure.7}}
\newlabel{fig:results_page}{{7}{12}{Results from a search, shown on the right of the screenshot. On the left column a summary of the query is given.\relax }{figure.7}{}}
\@writefile{lof}{\contentsline {figure}{\numberline {8}{\ignorespaces Modal showing additional information obtained from the \acrshort {PGM}'s described in chapter 4.\relax }}{12}{figure.8}}
\newlabel{fig:meta}{{8}{12}{Modal showing additional information obtained from the \acrshort {PGM}'s described in chapter 4.\relax }{figure.8}{}}
\@writefile{toc}{\contentsline {subsection}{\numberline {3.4}Design paradigm}{13}{subsection.3.4}}
\@writefile{lof}{\contentsline {figure}{\numberline {9}{\ignorespaces Design paradigm for the front-end (the arrows between the components indicate points of communication).\relax }}{13}{figure.9}}
\newlabel{fig:des_paradigm}{{9}{13}{Design paradigm for the front-end (the arrows between the components indicate points of communication).\relax }{figure.9}{}}
\@writefile{toc}{\contentsline {subsection}{\numberline {3.5}Back-end}{14}{subsection.3.5}}
\@writefile{toc}{\contentsline {subsubsection}{\numberline {3.5.1}Connector component}{14}{subsubsection.3.5.1}}
\@writefile{lof}{\contentsline {figure}{\numberline {10}{\ignorespaces Diagram illustrating the integration of the connector component with the \acrshort {sscp}.\relax }}{14}{figure.10}}
\newlabel{fig:connector_component}{{10}{14}{Diagram illustrating the integration of the connector component with the \acrshort {sscp}.\relax }{figure.10}{}}
\citation{PAS}
\@writefile{toc}{\contentsline {subsubsection}{\numberline {3.5.2}Tiered detection algorithm}{15}{subsubsection.3.5.2}}
\@writefile{lof}{\contentsline {figure}{\numberline {11}{\ignorespaces Illustration of the three tiered detection algorithm.\relax }}{15}{figure.11}}
\newlabel{fig:detection}{{11}{15}{Illustration of the three tiered detection algorithm.\relax }{figure.11}{}}
\@writefile{toc}{\contentsline {subsubsection}{\numberline {3.5.3}Homography of the foot to head plane}{16}{subsubsection.3.5.3}}
\@writefile{toc}{\contentsline {subsubsection}{\numberline {3.5.4}Databases}{16}{subsubsection.3.5.4}}
\@writefile{lof}{\contentsline {figure}{\numberline {12}{\ignorespaces Component layout of the databases used. The database used by the \acrshort {sscp} contains three entitites, image frames, model states and bounding boxes. The databases used by the offline processes each contain one entity.\relax }}{17}{figure.12}}
\newlabel{fig:db_overview}{{12}{17}{Component layout of the databases used. The database used by the \acrshort {sscp} contains three entitites, image frames, model states and bounding boxes. The databases used by the offline processes each contain one entity.\relax }{figure.12}{}}
\gdef \LT@ii {\LT@entry 
    {1}{88.48718pt}\LT@entry 
    {1}{345.13281pt}}
\gdef \LT@iii {\LT@entry 
    {1}{62.24359pt}\LT@entry 
    {1}{357.11058pt}}
\@writefile{lot}{\contentsline {table}{\numberline {2}{\ignorespaces List of attributes contained within the image frame entity.}}{18}{table.2}}
\newlabel{image_entity}{{2}{18}{List of attributes contained within the image frame entity}{table.2}{}}
\@writefile{lot}{\contentsline {table}{\numberline {3}{\ignorespaces Attributes for the bounding box entity.}}{18}{table.3}}
\newlabel{tab:1}{{3}{18}{Attributes for the bounding box entity}{table.3}{}}
\gdef \LT@iv {\LT@entry 
    {1}{151.4718pt}\LT@entry 
    {1}{282.1482pt}}
\gdef \LT@v {\LT@entry 
    {1}{58.07996pt}\LT@entry 
    {1}{375.54004pt}}
\gdef \LT@vi {\LT@entry 
    {1}{83.23846pt}\LT@entry 
    {1}{350.38153pt}}
\@writefile{lot}{\contentsline {table}{\numberline {4}{\ignorespaces List and description of attributes for the model states.}}{19}{table.4}}
\newlabel{tab:1}{{4}{19}{List and description of attributes for the model states}{table.4}{}}
\@writefile{toc}{\contentsline {subsubsection}{\numberline {3.5.5}Colour survey}{19}{subsubsection.3.5.5}}
\newlabel{col_database}{{3.5.5}{19}{Colour survey}{subsubsection.3.5.5}{}}
\@writefile{lot}{\contentsline {table}{\numberline {5}{\ignorespaces Description of the custom HSV type.}}{19}{table.5}}
\newlabel{tab:1}{{5}{19}{Description of the custom HSV type}{table.5}{}}
\@writefile{lot}{\contentsline {table}{\numberline {6}{\ignorespaces Description of attributes used by the colour assignments entity.}}{19}{table.6}}
\newlabel{tab:1}{{6}{19}{Description of attributes used by the colour assignments entity}{table.6}{}}
\@writefile{toc}{\contentsline {section}{\numberline {4}Profiling and modeling}{20}{section.4}}
\@writefile{lof}{\contentsline {figure}{\numberline {13}{\ignorespaces A simple example \acrshort {PGM} with three variables, A, B and C.\relax }}{20}{figure.13}}
\newlabel{fig:simple}{{13}{20}{A simple example \acrshort {PGM} with three variables, A, B and C.\relax }{figure.13}{}}
\citation{barber2012bayesian}
\@writefile{toc}{\contentsline {subsection}{\numberline {4.1}Need for \acrshort {PGM}'s}{22}{subsection.4.1}}
\@writefile{toc}{\contentsline {subsection}{\numberline {4.2}The models}{22}{subsection.4.2}}
\@writefile{toc}{\contentsline {subsubsection}{\numberline {4.2.1}The colour model}{22}{subsubsection.4.2.1}}
\newlabel{colour_model}{{4.2.1}{22}{The colour model}{subsubsection.4.2.1}{}}
\@writefile{lof}{\contentsline {figure}{\numberline {14}{\ignorespaces The structure of the colour model. This model is used to classify pixel coordinates by assigning to them colour categories.\relax }}{22}{figure.14}}
\newlabel{fig:col_model}{{14}{22}{The structure of the colour model. This model is used to classify pixel coordinates by assigning to them colour categories.\relax }{figure.14}{}}
\citation{CHAP}
\newlabel{transformation}{{1}{23}{The colour model}{equation.4.1}{}}
\@writefile{toc}{\contentsline {subsection}{\numberline {4.3}Estimating the state for the parameter variable}{23}{subsection.4.3}}
\@writefile{toc}{\contentsline {subsubsection}{\numberline {4.3.1}Body model}{24}{subsubsection.4.3.1}}
\@writefile{lof}{\contentsline {figure}{\numberline {15}{\ignorespaces The structure of the body model. Inferring the hidden states of the body model allows the formulation of a scoring algorithm.\relax }}{24}{figure.15}}
\newlabel{fig:body_model}{{15}{24}{The structure of the body model. Inferring the hidden states of the body model allows the formulation of a scoring algorithm.\relax }{figure.15}{}}
\newlabel{partition_vec}{{5}{25}{Body model}{equation.4.5}{}}
\newlabel{alpha}{{6}{26}{Body model}{equation.4.6}{}}
\newlabel{hidden_state_form}{{7}{26}{Body model}{equation.4.7}{}}
\citation{CHAP}
\newlabel{infer_pi}{{12}{27}{}{equation.4.12}{}}
\newlabel{infer_derived}{{13}{27}{}{equation.4.13}{}}
\@writefile{toc}{\contentsline {subsubsection}{\numberline {4.3.2}Estimating the parameters of the body model}{28}{subsubsection.4.3.2}}
\newlabel{training_body}{{4.3.2}{28}{Estimating the parameters of the body model}{subsubsection.4.3.2}{}}
\citation{CHAP}
\citation{CHAP}
\citation{CHAP}
\newlabel{opt_function}{{15}{29}{Estimating the parameters of the body model}{equation.4.15}{}}
\@writefile{toc}{\contentsline {subsection}{\numberline {4.4}The scoring algorithm}{30}{subsection.4.4}}
\newlabel{loose_score}{{16}{30}{The scoring algorithm}{equation.4.16}{}}
\newlabel{loose_score_log}{{17}{30}{The scoring algorithm}{equation.4.17}{}}
\newlabel{the_score}{{18}{30}{The scoring algorithm}{equation.4.18}{}}
\newlabel{likelihood_s0}{{19}{30}{The scoring algorithm}{equation.4.19}{}}
\newlabel{comp_score}{{21}{30}{The scoring algorithm}{equation.4.21}{}}
\@writefile{loa}{\contentsline {algorithm}{\numberline {1}{\ignorespaces Iterative scoring algorithm\relax }}{31}{algorithm.1}}
\newlabel{MOG_class}{{1}{31}{Iterative scoring algorithm\relax }{algorithm.1}{}}
\@writefile{toc}{\contentsline {section}{\numberline {5}Implementation and challenges}{32}{section.5}}
\@writefile{toc}{\contentsline {subsection}{\numberline {5.1}Connection to the \acrshort {csl} \acrshort {DVR}}{32}{subsection.5.1}}
\@writefile{toc}{\contentsline {subsection}{\numberline {5.2}Efficiency}{33}{subsection.5.2}}
\@writefile{toc}{\contentsline {subsubsection}{\numberline {5.2.1}Caching of log factorials}{33}{subsubsection.5.2.1}}
\@writefile{toc}{\contentsline {subsubsection}{\numberline {5.2.2}Detection before scoring}{33}{subsubsection.5.2.2}}
\@writefile{toc}{\contentsline {subsubsection}{\numberline {5.2.3}Faster generation of the observed variables for the body model}{33}{subsubsection.5.2.3}}
\citation{CHAP}
\citation{CHAP}
\@writefile{toc}{\contentsline {subsection}{\numberline {5.3}Novelties}{34}{subsection.5.3}}
\@writefile{toc}{\contentsline {section}{\numberline {6}Evaluation and testing}{35}{section.6}}
\@writefile{toc}{\contentsline {subsection}{\numberline {6.1}Correctness testing}{35}{subsection.6.1}}
\@writefile{lof}{\contentsline {figure}{\numberline {16}{\ignorespaces Summary plot showing assignments of torso component score with other related information on a sample image frame.\relax }}{35}{figure.16}}
\newlabel{fig:test_body}{{16}{35}{Summary plot showing assignments of torso component score with other related information on a sample image frame.\relax }{figure.16}{}}
\gdef \LT@vii {\LT@entry 
    {1}{76.93048pt}\LT@entry 
    {1}{98.76991pt}\LT@entry 
    {1}{103.68991pt}\LT@entry 
    {1}{101.04988pt}\LT@entry 
    {1}{104.2552pt}}
\gdef \LT@viii {\LT@entry 
    {1}{83.50047pt}\LT@entry 
    {1}{63.8452pt}}
\@writefile{lot}{\contentsline {table}{\numberline {7}{\ignorespaces Collection of nine confusion matrices for labelled torso's.}}{36}{table.7}}
\newlabel{tab:confusion_torso}{{7}{36}{Collection of nine confusion matrices for labelled torso's}{table.7}{}}
\@writefile{lot}{\contentsline {table}{\numberline {8}{\ignorespaces Derivations from the last row of the confusion matrix.}}{36}{table.8}}
\newlabel{tab:confusion_torso}{{8}{36}{Derivations from the last row of the confusion matrix}{table.8}{}}
\@writefile{toc}{\contentsline {subsection}{\numberline {6.2}Performance testing}{36}{subsection.6.2}}
\gdef \LT@ix {\LT@entry 
    {1}{137.42044pt}\LT@entry 
    {1}{70.50995pt}\LT@entry 
    {1}{102.09995pt}\LT@entry 
    {1}{105.05522pt}}
\@writefile{lot}{\contentsline {table}{\numberline {9}{\ignorespaces Performance results for the detection rate of the connector component on a total of 1414 image frames.}}{37}{table.9}}
\newlabel{tab:performance_connector}{{9}{37}{Performance results for the detection rate of the connector component on a total of 1414 image frames}{table.9}{}}
\gdef \LT@x {\LT@entry 
    {1}{164.21037pt}\LT@entry 
    {1}{120.1152pt}}
\@writefile{lot}{\contentsline {table}{\numberline {10}{\ignorespaces Performance results for the scoring a total of 380 frames. Images are scored when a query is sent to the back-end from the input view.}}{38}{table.10}}
\newlabel{tab:performance_score}{{10}{38}{Performance results for the scoring a total of 380 frames. Images are scored when a query is sent to the back-end from the input view}{table.10}{}}
\@writefile{toc}{\contentsline {subsection}{\numberline {6.3}Testing of the colour model}{38}{subsection.6.3}}
\gdef \LT@xi {\LT@entry 
    {1}{104.26048pt}\LT@entry 
    {1}{115.69522pt}}
\@writefile{lot}{\contentsline {table}{\numberline {11}{\ignorespaces Results of the colour assignment experiment for three sets of 81 randomly generated colour blocks. The agreement index is calculated as a ratio of correctly assigned colour categories according to the agreement of the test subjects.}}{39}{table.11}}
\newlabel{tab:performance_score}{{11}{39}{Results of the colour assignment experiment for three sets of 81 randomly generated colour blocks. The agreement index is calculated as a ratio of correctly assigned colour categories according to the agreement of the test subjects}{table.11}{}}
\@writefile{toc}{\contentsline {subsection}{\numberline {6.4}Static tests}{39}{subsection.6.4}}
\@writefile{toc}{\contentsline {section}{\numberline {7}Conclusion}{40}{section.7}}
\@writefile{toc}{\contentsline {section}{\numberline {A}Pixels and colour spaces}{41}{appendix.A}}
\newlabel{App:AppendixA}{{A}{41}{Pixels and colour spaces}{appendix.A}{}}
\@writefile{lof}{\contentsline {figure}{\numberline {17}{\ignorespaces Visualization of the HSV colour space.\relax }}{41}{figure.17}}
\newlabel{fig:hsv_col}{{17}{41}{Visualization of the HSV colour space.\relax }{figure.17}{}}
\citation{frigyik2010introduction}
\@writefile{toc}{\contentsline {section}{\numberline {B}The Dirichlet distribution}{42}{appendix.B}}
\newlabel{App:AppendixB}{{B}{42}{The Dirichlet distribution}{appendix.B}{}}
\@writefile{toc}{\contentsline {section}{\numberline {C}Derivation of the component score}{43}{appendix.C}}
\newlabel{App:AppendixC}{{C}{43}{Derivation of the component score}{appendix.C}{}}
\@writefile{toc}{\contentsline {section}{\numberline {D}Derivations of quantities required for Newton-Raphson optimization}{44}{appendix.D}}
\newlabel{App:AppendixD}{{D}{44}{Derivations of quantities required for Newton-Raphson optimization}{appendix.D}{}}
\@writefile{toc}{\contentsline {section}{\numberline {E}Visual representation of the modified hue distributions}{46}{appendix.E}}
\newlabel{App:AppendixE}{{E}{46}{Visual representation of the modified hue distributions}{appendix.E}{}}
\@writefile{lof}{\contentsline {figure}{\numberline {18}{\ignorespaces Spread of hues for each colour category after pixel transformation.\relax }}{46}{figure.18}}
\newlabel{fig:hue_distribution}{{18}{46}{Spread of hues for each colour category after pixel transformation.\relax }{figure.18}{}}
\citation{*}
\bibdata{mybib}
\bibcite{barber2012bayesian}{{1}{}{{}}{{}}}
\bibcite{HOG}{{2}{}{{}}{{}}}
\bibcite{dubrofsky2009homography}{{3}{}{{}}{{}}}
\bibcite{frigyik2010introduction}{{4}{}{{}}{{}}}
\bibcite{isnard2001can}{{5}{}{{}}{{}}}
\bibcite{IBG}{{6}{}{{}}{{}}}
\bibcite{BOOK}{{7}{}{{}}{{}}}
\bibcite{BAC}{{8}{}{{}}{{}}}
\bibcite{SCA}{{9}{}{{}}{{}}}
\bibcite{ABMM}{{10}{}{{}}{{}}}
\bibcite{GROUND}{{11}{}{{}}{{}}}
\bibcite{PAS}{{12}{}{{}}{{}}}
\bibcite{CHAP}{{13}{}{{}}{{}}}
\providecommand\NAT@force@numbers{}\NAT@force@numbers
