\relax 
\bibstyle{plain}
\select@language{english}
\@writefile{toc}{\select@language{english}}
\@writefile{lof}{\select@language{english}}
\@writefile{lot}{\select@language{english}}
\@writefile{lof}{\contentsline {figure}{\numberline {1}{\ignorespaces Sample segmentation for body in motion that is in an upright position walking away from the camera\relax }}{6}}
\newlabel{fig:sys_over}{{1}{6}}
\@writefile{lof}{\contentsline {figure}{\numberline {2}{\ignorespaces Another example for body segmentation in a upright standing position walking towards the camera\relax }}{6}}
\newlabel{fig:sys_over}{{2}{6}}
\@writefile{lof}{\contentsline {figure}{\numberline {3}{\ignorespaces Incorrect segmentation resulting from action such as opening a door. Body is not in an upright position and standard approach using fixed ratios is inapplicable.\relax }}{6}}
\newlabel{fig:sys_over}{{3}{6}}
\@writefile{lof}{\contentsline {figure}{\numberline {4}{\ignorespaces Extracted ROIs from sample videos with their associated color histograms using the color model.\relax }}{11}}
\newlabel{fig:sys_over}{{4}{11}}
\@writefile{lof}{\contentsline {figure}{\numberline {5}{\ignorespaces The cumulative normalized histograms for colors Gray, Black, Yellow, Red, Blue, Purple and Brown\relax }}{12}}
\newlabel{fig:sys_over}{{5}{12}}
\citation{zeng2008new}
\citation{hartley1995defence}
\@writefile{lot}{\contentsline {table}{\numberline {1}{\ignorespaces Trained weights using Nelder-Mead optimization\relax }}{20}}
\citation{zeng2008new}
\citation{zeng2008new}
\@writefile{lof}{\contentsline {figure}{\numberline {6}{\ignorespaces HSV coordinate plot lines indicate mean direction.\relax }}{21}}
\newlabel{fig:seq_diagram}{{6}{21}}
\@writefile{lof}{\contentsline {figure}{\numberline {7}{\ignorespaces Point correspondences used for the homography estimation.\relax }}{21}}
\newlabel{fig:seq_diagram}{{7}{21}}
\@writefile{lof}{\contentsline {figure}{\numberline {8}{\ignorespaces Example of good homography approximation (white line) without the normalization step.\relax }}{21}}
\newlabel{fig:seq_diagram}{{8}{21}}
\@writefile{lof}{\contentsline {figure}{\numberline {9}{\ignorespaces Example of a inaccurate height estimation using the homography matrix without the normalization step.\relax }}{21}}
\newlabel{fig:seq_diagram}{{9}{21}}
\@writefile{lof}{\contentsline {figure}{\numberline {10}{\ignorespaces Hue distributions using Von Mises for each color category.\relax }}{23}}
\newlabel{fig:seq_diagram}{{10}{23}}
\@writefile{lof}{\contentsline {figure}{\numberline {11}{\ignorespaces Login page, users are registered using the admin url by the superuser. Bob is currently a user with an assigned password.\relax }}{23}}
\newlabel{fig:seq_diagram}{{11}{23}}
\@writefile{lof}{\contentsline {figure}{\numberline {12}{\ignorespaces Administration page, the super user is able to login, activate and deactivate users.\relax }}{23}}
\newlabel{fig:seq_diagram}{{12}{23}}
\@writefile{lof}{\contentsline {figure}{\numberline {13}{\ignorespaces Cumulative histograms for trained ROIs using the RGB color model.\relax }}{25}}
\newlabel{fig:seq_diagram}{{13}{25}}
\@writefile{lof}{\contentsline {figure}{\numberline {14}{\ignorespaces Cumulative histograms for trained ROIs using the circular 4D color model.\relax }}{25}}
\newlabel{fig:seq_diagram}{{14}{25}}
\@writefile{lof}{\contentsline {figure}{\numberline {15}{\ignorespaces Screenshot taken to show storage of screenshots in the shared file, taken from Windows 7 virtual machine.\relax }}{28}}
\newlabel{fig:seq_diagram}{{15}{28}}
\@writefile{lof}{\contentsline {figure}{\numberline {16}{\ignorespaces View of first half of the query page, color selectors, date range selectors.\relax }}{31}}
\newlabel{fig:seq_diagram}{{16}{31}}
\@writefile{lof}{\contentsline {figure}{\numberline {17}{\ignorespaces View of second half of the query page, time and camera subset selection.\relax }}{31}}
\newlabel{fig:seq_diagram}{{17}{31}}
\@writefile{lof}{\contentsline {figure}{\numberline {18}{\ignorespaces Example of results, carousel for each camera selected and boxes surrounding bodies detected.\relax }}{31}}
\newlabel{fig:seq_diagram}{{18}{31}}
\@writefile{lof}{\contentsline {figure}{\numberline {19}{\ignorespaces Example of obeserved state and prior weight for a query searching for a red torso.\relax }}{32}}
\newlabel{fig:seq_diagram}{{19}{32}}
\@writefile{lof}{\contentsline {figure}{\numberline {20}{\ignorespaces Example of obeserved state and prior weight for a query searching for a blue torso.\relax }}{32}}
\newlabel{fig:seq_diagram}{{20}{32}}
\@writefile{lof}{\contentsline {figure}{\numberline {21}{\ignorespaces Container for one of the cameras for one such query where the time stamps for the results fit the slider. \relax }}{35}}
\newlabel{fig:seq_diagram}{{21}{35}}
\@writefile{lof}{\contentsline {figure}{\numberline {22}{\ignorespaces Container for one of the cameras for one such query where the time stamps for the results does not fit the time range of the slider.\relax }}{35}}
\newlabel{fig:seq_diagram}{{22}{35}}
\@writefile{lof}{\contentsline {figure}{\numberline {23}{\ignorespaces The results rendered from the profiler and displaying score to the user (it will not look like this for the final product).\relax }}{37}}
\newlabel{fig:seq_diagram}{{23}{37}}
\@writefile{lof}{\contentsline {figure}{\numberline {24}{\ignorespaces Extracted roi for the legs.\relax }}{41}}
\newlabel{fig:seq_diagram}{{24}{41}}
\@writefile{lof}{\contentsline {figure}{\numberline {25}{\ignorespaces Corresponding mask to isolate pixels of leg.\relax }}{41}}
\newlabel{fig:seq_diagram}{{25}{41}}
\@writefile{lof}{\contentsline {figure}{\numberline {26}{\ignorespaces Screen shot of simple webapplication for assisting of training.\relax }}{42}}
\newlabel{fig:seq_diagram}{{26}{42}}
\@writefile{lof}{\contentsline {figure}{\numberline {27}{\ignorespaces Main input view as a single column.\relax }}{44}}
\newlabel{fig:seq_diagram}{{27}{44}}
\@writefile{lof}{\contentsline {figure}{\numberline {28}{\ignorespaces Modal for date and time range selector.\relax }}{44}}
\newlabel{fig:seq_diagram}{{28}{44}}
\@writefile{lof}{\contentsline {figure}{\numberline {29}{\ignorespaces Clickable region selector.\relax }}{44}}
\newlabel{fig:seq_diagram}{{29}{44}}
\@writefile{lof}{\contentsline {figure}{\numberline {30}{\ignorespaces Modified results view, query on left scrollable carousels on the right.\relax }}{44}}
\newlabel{fig:seq_diagram}{{30}{44}}
\@writefile{lof}{\contentsline {figure}{\numberline {31}{\ignorespaces The user is able to click on an image and view the observed histograms and partitioning.\relax }}{45}}
\newlabel{fig:seq_diagram}{{31}{45}}
\@writefile{lof}{\contentsline {figure}{\numberline {32}{\ignorespaces Colour categorization of 100 randomly generated colour blocks.\relax }}{46}}
\newlabel{fig:seq_diagram}{{32}{46}}
\@writefile{lof}{\contentsline {figure}{\numberline {33}{\ignorespaces Runtime of assigning colour categories to ROIs using the two approaches for 20 image frames.\relax }}{48}}
\newlabel{fig:seq_diagram}{{33}{48}}
\@writefile{lof}{\contentsline {figure}{\numberline {34}{\ignorespaces \relax }}{49}}
\newlabel{fig:seq_diagram}{{34}{49}}
\@writefile{lof}{\contentsline {figure}{\numberline {35}{\ignorespaces \relax }}{50}}
\newlabel{fig:seq_diagram}{{35}{50}}
\@writefile{lof}{\contentsline {figure}{\numberline {36}{\ignorespaces \relax }}{50}}
\newlabel{fig:seq_diagram}{{36}{50}}
\@writefile{lof}{\contentsline {figure}{\numberline {37}{\ignorespaces Illustration of the output of the contours method provided by openCV2.\relax }}{51}}
\newlabel{fig:seq_diagram}{{37}{51}}
\@writefile{lof}{\contentsline {figure}{\numberline {38}{\ignorespaces A break down of the running times and frames rates for the approaches taken.\relax }}{52}}
\newlabel{fig:seq_diagram}{{38}{52}}
\@writefile{lof}{\contentsline {figure}{\numberline {39}{\ignorespaces A break down of the running times and frames rates for the approaches taken.\relax }}{52}}
\newlabel{fig:seq_diagram}{{39}{52}}
\bibstyle{plain}
\bibdata{mybib}
\bibcite{hartley1995defence}{{1}{}{{}}{{}}}
\bibcite{zeng2008new}{{2}{}{{}}{{}}}
\citation{*}
\bibdata{mybib}
\bibcite{hartley1995defence}{{1}{}{{}}{{}}}
\@writefile{toc}{\contentsline {section}{\numberline {1}Thursday 13/10/2016 - Tuesday 18/10/2016:}{53}}
\@writefile{toc}{\contentsline {subsection}{\numberline {1.1}Bottlenecks for scoring: 4 hours}{53}}
\@writefile{toc}{\contentsline {subsection}{\numberline {1.2}Bug fix on generation of observed histograms: 2-3 hours}{53}}
\@writefile{toc}{\contentsline {subsection}{\numberline {1.3}Corrections to report: 15-18 hours}{53}}
\@writefile{toc}{\contentsline {subsection}{\numberline {1.4}Progress for next week:}{53}}
\bibcite{zeng2008new}{{2}{}{{}}{{}}}
\providecommand\NAT@force@numbers{}\NAT@force@numbers
