\begin{thebibliography}{1}

\bibitem{hartley1995defence}
Richard Hartley.
\newblock In defence of the 8-points algorithm.
\newblock In {\em Proceedings of 5th International Conference on Computer
  Vision, Boston (USA)}, pages 1064--1070, 1995.

\bibitem{zeng2008new}
Hui Zeng, Xiaoming Deng, and Zhanyi Hu.
\newblock A new normalized method on line-based homography estimation.
\newblock {\em Pattern Recognition Letters}, 29(9):1236--1244, 2008.

\end{thebibliography}
